%YAML 1.1
%TAG !u! tag:unity3d.com,2011:
--- !u!114 &11400000
MonoBehaviour:
  m_ObjectHideFlags: 0
  m_CorrespondingSourceObject: {fileID: 0}
  m_PrefabInstance: {fileID: 0}
  m_PrefabAsset: {fileID: 0}
  m_GameObject: {fileID: 0}
  m_Enabled: 1
  m_EditorHideFlags: 0
  m_Script: {fileID: 11500000, guid: 4865a292dff0092408df1f355914e7a7, type: 3}
  m_Name: Level Editor
  m_EditorClassIdentifier: 
  displayName: Create Level
  tileCollection: {fileID: 11400000, guid: 4465e51c736f54ac6a3940fe5cbc0824, type: 2}
  collections:
  - {fileID: 11400000, guid: 6748fada5a77741a6a88ea0ed6c6d8d0, type: 2}
  - {fileID: 11400000, guid: 4465e51c736f54ac6a3940fe5cbc0824, type: 2}
  - {fileID: 11400000, guid: 0e9676ef7eebecc4a9c38c94a938b273, type: 2}
